{
  "type": "service_account",
  "project_id": "bazar-kori",
  "private_key_id": "5ef023f8c26d92a0d4087f2f2f7680276ad4d98a",
  "private_key": "-----BEGIN PRIVATE KEY-----\nMIIEvQIBADANBgkqhkiG9w0BAQEFAASCBKcwggSjAgEAAoIBAQC3rKJYDT95PP/2\nUvWFaZ63aTrrT8Jt+vstz3uXJwzs8RvWD0kSC6oQvKalsHCc/12EKztRTUBpp07r\nmpXTs7BOFtUOW+DbRJc2sqr9Pu5BzUBfX/O2c4jd77gaiTEJrY14p0RwQ8jJydjb\nIPXicyJbxBKyTVnG43W55KHBapGvialWcglUcTAbpIsoWd52jmQKGf9pTDrW7pJS\nlWeZOaZ3fzIWBfMPeEhtnelD5iv6TDt950YgLeby8OJ8oTISRvtcrNy3TDpfa3TR\nNboU1X5LNs5vIkFbTcWk4KRR1yJk+bV2xImgpIPe470InGtE0gbrVgD48fDnBSsQ\namafnXPLAgMBAAECggEAJOBuP8t5IPhUU7pYPQ71pNFl2PTMjpRDdfEgWTqn57KI\n6jNrckoRPQcDVmTUV1EWD4E2iZ4+/ndu6vLAfh6nmSYQZK+ht6RPz9WTawEFiQSS\nlhOHtOwBYL3OctV0mQLVUpIStY+Gcq0p8uTtOSfwkAgP0Oiiy8HDUy1KJLEmyt06\nwKElimaURskBL0aVlzve3ZU5yO9giT7fqHR84by9zTlPuFuBR4r8fG8/yXOhnw/u\naepcB8r8rwUSR/UsEQIFlZCAQIB+Uij0BenfzSHMO3COaHLD0P0hMlUf78KrfSsT\nMen+gEySpmCODNXmYRcxs8Yd715OzXBt7qMQlPZ7sQKBgQD6PamGSYbiEFbKdZa9\n5oJxtzHoCqD56vbMpy8E4mTFG+kaXZQLSIpDbIh+MGRBgnqNaTWjPWUzjKx4IoOY\naEZwEoH1UzagzJK4yDO/jDOz7gTJP9HnDDR0UysCCyrqSpmDF4Iz17OKFVn66zwO\nZOkLMPEBokXoyqxI0bPwd8mL1wKBgQC75sigFF5TiwafbGAedwl0TK3QWlPAYmM6\niM37Pl5JVJl1qOU1MOGRNt1hkW/g/78NLxmSCL3zrnQEnekRqgoQ4bAkHNKT9SbT\no0Fy/Bc9A0FQxUutn6qmMi9ONagR+QR5j65Yir1SSvlPTFgDFgtnnIOMezSRyQNo\nMnmebbs5LQKBgQCJ+4BDnL10X8ALqSUyly0sWPB624mB5O6rUDBcCB26ljZFpH3i\nbuBWZz0oH7TYboL3AKFj3pG0CAh9wcJAQpc8auggBv9jUQpCO5pVL5C+0SrwcXFj\nblZqIgXf/ZpvUC0vnMHdpj3IkRdphVY7NadO1XC/DuRvhXnUOVV37gVDRwKBgBtE\nI/zGt+FbnTxpF5GUKHUN43MGiHy0Sj3mOC2rITd25UXjmk8bpr/RvFI6Lofx1KFv\nIkDEr/u6Zu98kqOTjx5gAZVb8VqzCk1PtWGgHyclX8b+ujqZnsO7KI4qzxa8kd+p\n79y9VTep1X+iTms0ObdxSM2L21cEWlA2ctuAhNiJAoGAdtDY7c68rUj+Waa3di4F\nBz1JjqbHP7EgmTejE/deapPjq53dnq+NWYZfmnVciUF7/RxZ49vD6mygFp/Sussd\n2PgStD4w7kyPlM7XK2DW61kVy3D/YpzGeJRWOKPTKoXhNvpm6raWn7DWnhzQU/GT\nMIsYilYRJTWKhGONQC3BgkQ=\n-----END PRIVATE KEY-----\n",
  "client_email": "bazar-kori@bazar-kori.iam.gserviceaccount.com",
  "client_id": "117588691511854304486",
  "auth_uri": "https://accounts.google.com/o/oauth2/auth",
  "token_uri": "https://accounts.google.com/o/oauth2/token",
  "auth_provider_x509_cert_url": "https://www.googleapis.com/oauth2/v1/certs",
  "client_x509_cert_url": "https://www.googleapis.com/robot/v1/metadata/x509/bazar-kori%40bazar-kori.iam.gserviceaccount.com"
}
